<?xml version="1.0" encoding="utf-8"?>
<svg version="1.1" xmlns:xodm="http://www.corel.com/coreldraw/odm/2003" xmlns="http://www.w3.org/2000/svg" xmlns:xlink="http://www.w3.org/1999/xlink" x="0px" y="0px" viewBox="0 0 200 200" xml:space="preserve">
<path fill="#fff" style="fill-rule:evenodd;clip-rule:evenodd;" d="M0,0h115v85h85v115H85v-85H0V0z M115,100v15h-15v70h85v-85H115z M15,15h85v85H15V15z"/>
<polygon fill="#fff" points="185,15 130,15 130,30 170,30 170,45 145,45 185,85"/>
<polygon fill="#fff" points="15,185 70,185 70,170 30,170 30,155 55,155 15,115"/>
<polygon fill="#fff" points="35.5,85 35.5,30 50.5,30 50.5,70 77.5,70 77.5,85"/>
<path fill="#fff" d="M127,147.3c-0.7,6.1-3.1,8.8-7.7,8.8h-4.1V170h5.9c12.4,0,19.2-7.3,20.9-22.2l2-17.8h11v40h15v-55c-13,0-26.1,0-39.1,0 C130.9,115,127,147.3,127,147.3z"/>
</svg>
